{
  "version": "6.0",
  "nxVersion": "17.2.8",
  "deps": {
    "@jscutlery/semver": "^4.2.0",
    "axios": "^1.0.0",
    "tslib": "^2.3.0",
    "@nrwl/nx-cloud": "latest",
    "@nx/esbuild": "17.2.8",
    "@nx/eslint": "17.2.8",
    "@nx/eslint-plugin": "17.2.8",
    "@nx/jest": "17.2.8",
    "@nx/js": "17.2.8",
    "@nx/node": "17.2.8",
    "@swc-node/register": "~1.6.7",
    "@swc/core": "~1.3.85",
    "@types/jest": "^29.4.0",
    "@types/node": "18.16.9",
    "@typescript-eslint/eslint-plugin": "^6.9.1",
    "@typescript-eslint/parser": "^6.9.1",
    "esbuild": "^0.19.2",
    "eslint": "~8.48.0",
    "eslint-config-prettier": "^9.0.0",
    "jest": "^29.4.1",
    "jest-environment-node": "^29.4.1",
    "nx": "^17.2.8",
    "prettier": "^2.6.2",
    "ts-jest": "^29.1.0",
    "ts-node": "10.9.1",
    "typescript": "~5.2.2"
  },
  "pathMappings": {},
  "nxJsonPlugins": [],
  "pluginsConfig": {
    "@nx/js": {
      "analyzeSourceFiles": false
    }
  },
  "fileMap": {
    "nonProjectFiles": [
      {
        "file": ".prettierrc",
        "hash": "16267754514737964994"
      },
      {
        "file": ".gitlab-ci.yml",
        "hash": "15814521419991933493"
      },
      {
        "file": "package.json",
        "hash": "6636506478189455551"
      },
      {
        "file": ".vscode/extensions.json",
        "hash": "235626400633494639"
      },
      {
        "file": "jest.config.ts",
        "hash": "12333515226966617182"
      },
      {
        "file": ".prettierignore",
        "hash": "16448050467312557263"
      },
      {
        "file": "tsconfig.base.json",
        "hash": "16936441711144470533"
      },
      {
        "file": "packages/.gitkeep",
        "hash": "3244421341483603138"
      },
      {
        "file": ".eslintrc.json",
        "hash": "18315524891129148814"
      },
      {
        "file": ".gitignore",
        "hash": "11608181557323256120"
      },
      {
        "file": "README.md",
        "hash": "7458517904826783066"
      },
      {
        "file": ".eslintignore",
        "hash": "7663861978715868291"
      },
      {
        "file": "jest.preset.js",
        "hash": "9430166341120122740"
      },
      {
        "file": "nx.json",
        "hash": "2245728901827921900"
      },
      {
        "file": "package-lock.json",
        "hash": "13380699751111186448"
      }
    ],
    "projectFileMap": {
      "b": [
        {
          "file": "b/.eslintrc.json",
          "hash": "11808533155536463924"
        },
        {
          "file": "b/CHANGELOG.md",
          "hash": "14074718373399713877"
        },
        {
          "file": "b/jest.config.ts",
          "hash": "1960477869846961753"
        },
        {
          "file": "b/project.json",
          "hash": "6601481084143508648"
        },
        {
          "file": "b/src/assets/.gitkeep",
          "hash": "3244421341483603138"
        },
        {
          "file": "b/src/main.ts",
          "hash": "10437894575664057656"
        },
        {
          "file": "b/tsconfig.app.json",
          "hash": "1650782542565282680"
        },
        {
          "file": "b/tsconfig.json",
          "hash": "9420862676426701392"
        },
        {
          "file": "b/tsconfig.spec.json",
          "hash": "17313551537729802733"
        }
      ],
      "A": [
        {
          "file": "A/.eslintrc.json",
          "hash": "11808533155536463924"
        },
        {
          "file": "A/jest.config.ts",
          "hash": "12149795689707931194"
        },
        {
          "file": "A/project.json",
          "hash": "5767880574405768414"
        },
        {
          "file": "A/src/assets/.gitkeep",
          "hash": "3244421341483603138"
        },
        {
          "file": "A/src/main.ts",
          "hash": "16535312626747436551"
        },
        {
          "file": "A/tsconfig.app.json",
          "hash": "1650782542565282680"
        },
        {
          "file": "A/tsconfig.json",
          "hash": "9420862676426701392"
        },
        {
          "file": "A/tsconfig.spec.json",
          "hash": "17313551537729802733"
        }
      ],
      "b-e2e": [
        {
          "file": "b-e2e/.eslintrc.json",
          "hash": "11808533155536463924"
        },
        {
          "file": "b-e2e/jest.config.ts",
          "hash": "5579820196266241592"
        },
        {
          "file": "b-e2e/project.json",
          "hash": "3638792341999729622"
        },
        {
          "file": "b-e2e/src/b/b.spec.ts",
          "hash": "16477388604668608500"
        },
        {
          "file": "b-e2e/src/test-setup.ts",
          "hash": "12277343883897675151"
        },
        {
          "file": "b-e2e/tsconfig.json",
          "hash": "2346920493880922870"
        },
        {
          "file": "b-e2e/tsconfig.spec.json",
          "hash": "11811063609444882018"
        }
      ],
      "A-e2e": [
        {
          "file": "A-e2e/.eslintrc.json",
          "hash": "11808533155536463924"
        },
        {
          "file": "A-e2e/jest.config.ts",
          "hash": "10628395135818473473"
        },
        {
          "file": "A-e2e/project.json",
          "hash": "15312620523890055963"
        },
        {
          "file": "A-e2e/src/a/a.spec.ts",
          "hash": "8951278132094728204"
        },
        {
          "file": "A-e2e/src/test-setup.ts",
          "hash": "12277343883897675151"
        },
        {
          "file": "A-e2e/tsconfig.json",
          "hash": "2346920493880922870"
        },
        {
          "file": "A-e2e/tsconfig.spec.json",
          "hash": "11811063609444882018"
        }
      ]
    }
  }
}
